lab2/build/dump.vcd
$date
	Wed Oct  2 17:20:34 2024
$end
$version
	Icarus Verilog
$end
$timescale
	1s
$end
$scope module imuldiv_DivReqMsgToBits $end
$var wire 32 ! a [31:0] $end
$var wire 32 " b [31:0] $end
$var wire 1 # func $end
$var wire 65 $ bits [64:0] $end
$upscope $end
$scope module imuldiv_DivReqMsgToStr $end
$var wire 65 % msg [64:0] $end
$var wire 1 & func $end
$var wire 32 ' b [31:0] $end
$var wire 32 ( a [31:0] $end
$var reg 160 ) full_str [159:0] $end
$var reg 16 * tiny_str [15:0] $end
$upscope $end
$scope module tester $end
$var wire 1 + t0_done $end
$var reg 1 , clk $end
$var reg 1024 - next_test_case_num [1023:0] $end
$var reg 1 . t0_reset $end
$var reg 1024 / test_case_num [1023:0] $end
$var reg 2 0 verbose [1:0] $end
$scope module t0 $end
$var wire 1 , clk $end
$var wire 1 + done $end
$var wire 1 . reset $end
$var wire 1 1 src_val $end
$var wire 1 2 src_rdy $end
$var wire 1 3 src_msg_fn $end
$var wire 32 4 src_msg_b [31:0] $end
$var wire 32 5 src_msg_a [31:0] $end
$var wire 65 6 src_msg [64:0] $end
$var wire 1 7 src_done $end
$var wire 1 8 sink_val $end
$var wire 1 9 sink_rdy $end
$var wire 64 : sink_msg [63:0] $end
$var wire 1 ; sink_done $end
$scope module idiv $end
$var wire 1 , clk $end
$var wire 1 . reset $end
$var wire 1 8 divresp_val $end
$var wire 1 9 divresp_rdy $end
$var wire 64 < divresp_msg_result [63:0] $end
$var wire 1 1 divreq_val $end
$var wire 1 2 divreq_rdy $end
$var wire 1 3 divreq_msg_fn $end
$var wire 32 = divreq_msg_b [31:0] $end
$var wire 32 > divreq_msg_a [31:0] $end
$scope module dpath $end
$var wire 1 , clk $end
$var wire 1 . reset $end
$var wire 32 ? unsigned_b [31:0] $end
$var wire 32 @ unsigned_a [31:0] $end
$var wire 65 A sub_out [64:0] $end
$var wire 65 B sub_mx_out [64:0] $end
$var wire 32 C signed_remainder [31:0] $end
$var wire 32 D signed_quotient [31:0] $end
$var wire 1 E sign_en $end
$var wire 1 F sign_bit_b $end
$var wire 1 G sign_bit_a $end
$var wire 1 H result_mux_sel $end
$var wire 1 I is_result_signed_rem $end
$var wire 1 J is_result_signed_div $end
$var wire 1 8 divresp_val $end
$var wire 1 9 divresp_rdy $end
$var wire 64 K divresp_msg_result [63:0] $end
$var wire 1 1 divreq_val $end
$var wire 1 2 divreq_rdy $end
$var wire 1 3 divreq_msg_fn $end
$var wire 32 L divreq_msg_b [31:0] $end
$var wire 32 M divreq_msg_a [31:0] $end
$var wire 1 N b_mux_sel $end
$var wire 65 O a_shift_out [64:0] $end
$var wire 1 P a_mux_sel $end
$var reg 65 Q a_reg [64:0] $end
$var reg 65 R b_reg [64:0] $end
$var reg 1 S fn_reg $end
$var reg 1 T program_start $end
$var reg 1 J sign_div_reg $end
$var reg 1 I sign_rem_reg $end
$var reg 1 U starting $end
$scope module dpathctrl $end
$var wire 1 , clk $end
$var wire 1 . reset $end
$var wire 1 E sign_en $end
$var wire 1 9 divresp_rdy $end
$var wire 1 1 divreq_val $end
$var reg 1 P a_mux_sel $end
$var reg 1 N b_mux_sel $end
$var reg 1 V counter_en $end
$var reg 5 W counter_reg [4:0] $end
$var reg 1 2 divreq_rdy $end
$var reg 1 8 divresp_val $end
$var reg 1 H result_mux_sel $end
$upscope $end
$upscope $end
$upscope $end
$scope module msgfrombits $end
$var wire 1 3 func $end
$var wire 65 X bits [64:0] $end
$var wire 32 Y b [31:0] $end
$var wire 32 Z a [31:0] $end
$upscope $end
$scope module sink $end
$var wire 1 , clk $end
$var wire 64 [ msg [63:0] $end
$var wire 1 . reset $end
$var wire 1 8 val $end
$var wire 1 \ sink_val $end
$var wire 1 ] sink_rdy $end
$var wire 64 ^ sink_msg [63:0] $end
$var wire 1 9 rdy $end
$var wire 1 ; done $end
$scope module rand_delay $end
$var wire 1 , clk $end
$var wire 64 _ in_msg [63:0] $end
$var wire 1 8 in_val $end
$var wire 64 ` out_msg [63:0] $end
$var wire 1 . reset $end
$var wire 1 a zero_cycle_delay $end
$var wire 32 b rand_delay [31:0] $end
$var wire 1 ] out_rdy $end
$var reg 1 9 in_rdy $end
$var reg 1 \ out_val $end
$var reg 1 c rand_delay_en $end
$var reg 32 d rand_delay_next [31:0] $end
$var reg 32 e rand_num [31:0] $end
$var reg 1 f state $end
$var reg 1 g state_next $end
$scope begin genblk2 $end
$upscope $end
$scope module rand_delay_pf $end
$var wire 1 , clk $end
$var wire 32 h d_p [31:0] $end
$var wire 1 c en_p $end
$var wire 1 . reset_p $end
$var reg 32 i q_np [31:0] $end
$upscope $end
$upscope $end
$scope module sink $end
$var wire 1 , clk $end
$var wire 1 j go $end
$var wire 1 k index_en $end
$var wire 64 l msg [63:0] $end
$var wire 1 . reset $end
$var wire 1 \ val $end
$var wire 1 ] rdy $end
$var wire 10 m index_next [9:0] $end
$var wire 10 n index [9:0] $end
$var wire 1 ; done $end
$var reg 2 o verbose [1:0] $end
$scope module index_pf $end
$var wire 1 , clk $end
$var wire 10 p d_p [9:0] $end
$var wire 1 k en_p $end
$var wire 1 . reset_p $end
$var reg 10 q q_np [9:0] $end
$upscope $end
$upscope $end
$upscope $end
$scope module src $end
$var wire 1 , clk $end
$var wire 1 2 rdy $end
$var wire 1 . reset $end
$var wire 1 1 val $end
$var wire 1 r src_val $end
$var wire 1 s src_rdy $end
$var wire 65 t src_msg [64:0] $end
$var wire 65 u msg [64:0] $end
$var wire 1 7 done $end
$scope module rand_delay $end
$var wire 1 , clk $end
$var wire 65 v out_msg [64:0] $end
$var wire 1 2 out_rdy $end
$var wire 1 . reset $end
$var wire 1 w zero_cycle_delay $end
$var wire 32 x rand_delay [31:0] $end
$var wire 1 r in_val $end
$var wire 65 y in_msg [64:0] $end
$var reg 1 s in_rdy $end
$var reg 1 1 out_val $end
$var reg 1 z rand_delay_en $end
$var reg 32 { rand_delay_next [31:0] $end
$var reg 32 | rand_num [31:0] $end
$var reg 1 } state $end
$var reg 1 ~ state_next $end
$scope begin genblk2 $end
$upscope $end
$scope module rand_delay_pf $end
$var wire 1 , clk $end
$var wire 32 !" d_p [31:0] $end
$var wire 1 z en_p $end
$var wire 1 . reset_p $end
$var reg 32 "" q_np [31:0] $end
$upscope $end
$upscope $end
$scope module src $end
$var wire 1 , clk $end
$var wire 1 #" go $end
$var wire 1 $" index_en $end
$var wire 65 %" msg [64:0] $end
$var wire 1 s rdy $end
$var wire 1 . reset $end
$var wire 1 r val $end
$var wire 10 &" index_next [9:0] $end
$var wire 10 '" index [9:0] $end
$var wire 1 7 done $end
$scope module index_pf $end
$var wire 1 , clk $end
$var wire 10 (" d_p [9:0] $end
$var wire 1 $" en_p $end
$var wire 1 . reset_p $end
$var reg 10 )" q_np [9:0] $end
$upscope $end
$upscope $end
$upscope $end
$upscope $end
$upscope $end
$scope module vc_DFF_nf $end
$var wire 1 *" clk $end
$var wire 1 +" d_p $end
$var reg 1 ," q_np $end
$upscope $end
$scope module vc_DFF_pf $end
$var wire 1 -" clk $end
$var wire 1 ." d_p $end
$var reg 1 /" q_np $end
$upscope $end
$scope module vc_EDFF_nf $end
$var wire 1 0" clk $end
$var wire 1 1" d_n $end
$var wire 1 2" en_n $end
$var reg 1 3" q_pn $end
$upscope $end
$scope module vc_EDFF_pf $end
$var wire 1 4" clk $end
$var wire 1 5" d_p $end
$var wire 1 6" en_p $end
$var reg 1 7" q_np $end
$upscope $end
$scope module vc_ELatch_hl $end
$var wire 1 8" clk $end
$var wire 1 9" d_n $end
$var wire 1 :" en_p $end
$var reg 1 ;" en_latched_pn $end
$var reg 1 <" q_np $end
$upscope $end
$scope module vc_ELatch_ll $end
$var wire 1 =" clk $end
$var wire 1 >" d_p $end
$var wire 1 ?" en_n $end
$var reg 1 @" en_latched_np $end
$var reg 1 A" q_pn $end
$upscope $end
$scope module vc_Latch_hl $end
$var wire 1 B" clk $end
$var wire 1 C" d_n $end
$var reg 1 D" q_np $end
$upscope $end
$scope module vc_Latch_ll $end
$var wire 1 E" clk $end
$var wire 1 F" d_p $end
$var reg 1 G" q_pn $end
$upscope $end
$scope module vc_RDFF_pf $end
$var wire 1 H" clk $end
$var wire 1 I" d_p $end
$var wire 1 J" reset_p $end
$var reg 1 K" q_np $end
$upscope $end
$enddefinitions $end
#0
$dumpvars
xK"
zJ"
zI"
zH"
xG"
zF"
zE"
xD"
zC"
zB"
xA"
x@"
z?"
z>"
z="
x<"
x;"
z:"
z9"
z8"
x7"
z6"
z5"
z4"
x3"
z2"
z1"
z0"
x/"
z."
z-"
x,"
z+"
z*"
b0 )"
b1 ("
b0 '"
b1 &"
bx %"
0$"
0#"
b0 ""
b0 !"
0~
0}
b0 |
b0 {
0z
bx y
b0 x
0w
bx v
bx u
bx t
1s
0r
b0 q
b1 p
b10 o
b0 n
b1 m
b0 l
0k
0j
b0 i
b1 h
0g
0f
b10 e
b1 d
0c
b0 b
0a
b0 `
b0 _
b0 ^
0]
0\
b0 [
bx Z
bx Y
bx X
b11111 W
0V
1U
0T
0S
b0 R
b0 Q
0P
b0 O
0N
bx M
bx L
b0 K
0J
0I
0H
xG
xF
1E
b0 D
b0 C
b1 B
b0 A
bx @
bx ?
bx >
bx =
b0 <
1;
b0 :
09
08
17
bx 6
bx 5
bx 4
x3
12
01
b10 0
b0 /
1.
b0 -
1,
1+
b11111100111111 *
b111010101101110011001000110010101100110011010010110111001100101011001000010000001100110011101010110111001100011 )
bz (
bz '
z&
bz %
bz $
z#
bz "
bz !
$end
#5
0,
#10
0s
b1 |
1,
#15
0,
#20
b1 {
b1 !"
b0 d
b0 h
b10 |
b0 e
1,
#25
0,
#30
b1 e
1,
#35
0,
#40
b0 {
b0 !"
b1 |
b0 e
1,
#45
0,
#50
b1 d
b1 h
1s
b10 e
b0 |
1,
#55
0,
#60
0s
b0 d
b0 h
b1 |
b0 e
1,
#65
0,
#70
1,
#75
0,
#80
1s
b0 |
b1 e
1,
#85
0,
#90
b0 e
1,
#95
0,
#100
1w
b1 ?
0F
b0 @
0G
1$"
1#"
11
0z
0~
0+
b1 4
b1 =
b1 L
b1 Y
b0 5
b0 >
b0 M
b0 Z
13
b1 d
b1 h
1]
0;
1r
07
b10000000000000000000000000000000000000000000000000000000000000001 6
b10000000000000000000000000000000000000000000000000000000000000001 X
b10000000000000000000000000000000000000000000000000000000000000001 u
b10000000000000000000000000000000000000000000000000000000000000001 v
b10000000000000000000000000000000000000000000000000000000000000001 t
b10000000000000000000000000000000000000000000000000000000000000001 y
b10000000000000000000000000000000000000000000000000000000000000001 %"
b10 e
b1 /
1,
b1 -
#105
0,
#110
19
b0 d
b0 h
b0 e
1,
#115
0,
#120
0$"
0#"
1~
01
0s
1z
0w
09
b1 |
b1 e
1,
#125
0U
0,
0.
#130
b0 B
1$"
1#"
b1 d
b1 h
0~
11
1s
b11111111111111111111111111111111 {
b11111111111111111111111111111111 !"
0z
1S
b11111111111111111111111111111111100000000000000000000000000000000 A
b100000000000000000000000000000000 R
b10 e
1T
1}
b10 |
1,
#135
0,
#140
0E
b1 @
0$"
0#"
b1 5
b1 >
b1 M
b1 Z
01
0s
b0 {
b0 !"
1z
1~
b0 d
b0 h
02
1V
1H
1N
1P
b10 &"
b10 ("
b10000000000000000000000000000000100000000000000000000000000000001 6
b10000000000000000000000000000000100000000000000000000000000000001 X
b10000000000000000000000000000000100000000000000000000000000000001 u
b10000000000000000000000000000000100000000000000000000000000000001 v
b10000000000000000000000000000000100000000000000000000000000000001 t
b10000000000000000000000000000000100000000000000000000000000000001 y
b10000000000000000000000000000000100000000000000000000000000000001 %"
b1 '"
b1 )"
b1 |
0}
b1 e
1,
#145
0,
#150
11
b11111111111111111111111111111111 {
b11111111111111111111111111111111 !"
0z
b11110 W
1}
1,
#155
0,
#160
b1 d
b1 h
b11101 W
b10 e
1,
#165
0,
#170
19
b0 d
b0 h
b11100 W
b0 e
b0 |
1,
#175
0,
#180
b11011 W
1,
#185
0,
#190
b11010 W
b1 |
1,
#195
0,
#200
b11001 W
1,
#205
0,
#210
b11000 W
b0 |
1,
#215
0,
#220
b10111 W
b10 |
1,
#225
0,
#230
09
b1 d
b1 h
b10110 W
b10 e
1,
#235
0,
#240
b0 d
b0 h
b10101 W
b1 |
b1 e
1,
#245
0,
#250
b1 d
b1 h
b10100 W
b10 e
b10 |
1,
#255
0,
#260
b0 d
b0 h
b10011 W
b0 |
b1 e
1,
#265
0,
#270
19
b10010 W
b0 e
b10 |
1,
#275
0,
#280
09
b10001 W
b1 |
b1 e
1,
#285
0,
#290
b10000 W
b0 |
1,
#295
0,
#300
b1111 W
b10 |
1,
#305
0,
#310
b1 d
b1 h
b1110 W
b10 e
b0 |
1,
#315
0,
#320
b1101 W
b1 |
1,
#325
0,
#330
19
b0 d
b0 h
b1100 W
b0 e
b0 |
1,
#335
0,
#340
b1011 W
1,
#345
0,
#350
09
b1010 W
b1 e
b1 |
1,
#355
0,
#360
19
b1001 W
b0 e
1,
#365
0,
#370
09
b1 d
b1 h
b1000 W
b10 e
1,
#375
0,
#380
b111 W
1,
#385
0,
#390
b110 W
b0 |
1,
#395
0,
#400
b101 W
b10 |
1,
#405
0,
#410
19
b0 d
b0 h
b100 W
b0 e
1,
#415
0,
#420
09
b1 d
b1 h
b11 W
b1 |
b10 e
1,
#425
0,
#430
19
b0 d
b0 h
b10 W
b0 e
b10 |
1,
#435
0,
#440
b1 W
b0 |
1,
#445
0,
#450
b0 W
b1 |
1,
#455
0,
#460
1a
1k
1j
1$"
1#"
1E
1\
0c
0g
1s
0~
18
12
0V
0H
0N
0P
b11111 W
1,
#465
0,
#470
b10 B
b1 ^
b1 `
b1 l
b1 :
b1 <
b1 K
b1 [
b1 _
b1 D
0E
0k
0j
0$"
0#"
b1 ?
1F
b0 @
b11111111111111111111111111111111100000000000000000000000000000010 A
b10 O
0\
09
b1 d
b1 h
0a
1~
01
0s
b1 {
b1 !"
1z
b11111111111111111111111111111111 4
b11111111111111111111111111111111 =
b11111111111111111111111111111111 L
b11111111111111111111111111111111 Y
b0 5
b0 >
b0 M
b0 Z
b1 Q
08
02
1V
1H
1N
1P
b10 m
b10 p
b1 n
b1 q
b10 e
0}
b10 |
b11 &"
b11 ("
b10000000000000000000000000000000011111111111111111111111111111111 6
b10000000000000000000000000000000011111111111111111111111111111111 X
b10000000000000000000000000000000011111111111111111111111111111111 u
b10000000000000000000000000000000011111111111111111111111111111111 v
b10000000000000000000000000000000011111111111111111111111111111111 t
b10000000000000000000000000000000011111111111111111111111111111111 y
b10000000000000000000000000000000011111111111111111111111111111111 %"
b10 '"
b10 )"
1,
#475
0,
#480
b100 B
b10 ^
b10 `
b10 l
b10 :
b10 <
b10 K
b10 [
b10 _
b10 D
b11111111111111111111111111111111100000000000000000000000000000100 A
b100 O
b0 {
b0 !"
19
b0 d
b0 h
b11110 W
b10 Q
b1 |
b1 x
b1 ""
1}
b0 e
1,
#485
0,
#490
b1000 B
b100 ^
b100 `
b100 l
b100 :
b100 <
b100 K
b100 [
b100 _
b100 D
b11111111111111111111111111111111100000000000000000000000000001000 A
b1000 O
09
b1 d
b1 h
11
b11111111111111111111111111111111 {
b11111111111111111111111111111111 !"
0z
b100 Q
b11101 W
b10 e
b0 x
b0 ""
1,
#495
0,
#500
b10000 B
b1000 ^
b1000 `
b1000 l
b1000 :
b1000 <
b1000 K
b1000 [
b1000 _
b1000 D
b11111111111111111111111111111111100000000000000000000000000010000 A
b10000 O
b11100 W
b1000 Q
b10 |
1,
#505
0,
#510
b100000 B
b10000 ^
b10000 `
b10000 l
b10000 :
b10000 <
b10000 K
b10000 [
b10000 _
b10000 D
b11111111111111111111111111111111100000000000000000000000000100000 A
b100000 O
b0 d
b0 h
b10000 Q
b11011 W
b1 e
1,
#515
0,
#520
b1000000 B
b100000 ^
b100000 `
b100000 l
b100000 :
b100000 <
b100000 K
b100000 [
b100000 _
b100000 D
b11111111111111111111111111111111100000000000000000000000001000000 A
b1000000 O
19
b11010 W
b100000 Q
b1 |
b0 e
1,
#525
0,
#530
b10000000 B
b1000000 ^
b1000000 `
b1000000 l
b1000000 :
b1000000 <
b1000000 K
b1000000 [
b1000000 _
b1000000 D
b11111111111111111111111111111111100000000000000000000000010000000 A
b10000000 O
b1000000 Q
b11001 W
1,
#535
0,
#540
b100000000 B
b10000000 ^
b10000000 `
b10000000 l
b10000000 :
b10000000 <
b10000000 K
b10000000 [
b10000000 _
b10000000 D
b11111111111111111111111111111111100000000000000000000000100000000 A
b100000000 O
09
b1 d
b1 h
b11000 W
b10000000 Q
b0 |
b10 e
1,
#545
0,
#550
b1000000000 B
b100000000 ^
b100000000 `
b100000000 l
b100000000 :
b100000000 <
b100000000 K
b100000000 [
b100000000 _
b100000000 D
b11111111111111111111111111111111100000000000000000000001000000000 A
b1000000000 O
b0 d
b0 h
b100000000 Q
b10111 W
b1 e
1,
#555
0,
#560
b10000000000 B
b1000000000 ^
b1000000000 `
b1000000000 l
b1000000000 :
b1000000000 <
b1000000000 K
b1000000000 [
b1000000000 _
b1000000000 D
b11111111111111111111111111111111100000000000000000000010000000000 A
b10000000000 O
19
b10110 W
b1000000000 Q
b10 |
b0 e
1,
#565
0,
#570
b100000000000 B
b10000000000 ^
b10000000000 `
b10000000000 l
b10000000000 :
b10000000000 <
b10000000000 K
b10000000000 [
b10000000000 _
b10000000000 D
b11111111111111111111111111111111100000000000000000000100000000000 A
b100000000000 O
b10000000000 Q
b10101 W
1,
#575
0,
#580
b1000000000000 B
b100000000000 ^
b100000000000 `
b100000000000 l
b100000000000 :
b100000000000 <
b100000000000 K
b100000000000 [
b100000000000 _
b100000000000 D
b11111111111111111111111111111111100000000000000000001000000000000 A
b1000000000000 O
09
b10100 W
b100000000000 Q
b1 e
1,
#585
0,
#590
b10000000000000 B
b1000000000000 ^
b1000000000000 `
b1000000000000 l
b1000000000000 :
b1000000000000 <
b1000000000000 K
b1000000000000 [
b1000000000000 _
b1000000000000 D
b11111111111111111111111111111111100000000000000000010000000000000 A
b10000000000000 O
b1000000000000 Q
b10011 W
b1 |
1,
#595
0,
#600
b100000000000000 B
b10000000000000 ^
b10000000000000 `
b10000000000000 l
b10000000000000 :
b10000000000000 <
b10000000000000 K
b10000000000000 [
b10000000000000 _
b10000000000000 D
b11111111111111111111111111111111100000000000000000100000000000000 A
b100000000000000 O
b1 d
b1 h
b10010 W
b10000000000000 Q
b10 |
b10 e
1,
#605
0,
#610
b1000000000000000 B
b100000000000000 ^
b100000000000000 `
b100000000000000 l
b100000000000000 :
b100000000000000 <
b100000000000000 K
b100000000000000 [
b100000000000000 _
b100000000000000 D
b11111111111111111111111111111111100000000000000001000000000000000 A
b1000000000000000 O
b100000000000000 Q
b10001 W
b1 |
1,
#615
0,
#620
b10000000000000000 B
b1000000000000000 ^
b1000000000000000 `
b1000000000000000 l
b1000000000000000 :
b1000000000000000 <
b1000000000000000 K
b1000000000000000 [
b1000000000000000 _
b1000000000000000 D
b11111111111111111111111111111111100000000000000010000000000000000 A
b10000000000000000 O
b0 d
b0 h
b10000 W
b1000000000000000 Q
b10 |
b1 e
1,
#625
0,
#630
b100000000000000000 B
b10000000000000000 ^
b10000000000000000 `
b10000000000000000 l
b10000000000000000 :
b10000000000000000 <
b10000000000000000 K
b10000000000000000 [
b10000000000000000 _
b10000000000000000 D
b11111111111111111111111111111111100000000000000100000000000000000 A
b100000000000000000 O
b10000000000000000 Q
b1111 W
b0 |
1,
#635
0,
#640
b1000000000000000000 B
b100000000000000000 ^
b100000000000000000 `
b100000000000000000 l
b100000000000000000 :
b100000000000000000 <
b100000000000000000 K
b100000000000000000 [
b100000000000000000 _
b100000000000000000 D
b11111111111111111111111111111111100000000000001000000000000000000 A
b1000000000000000000 O
b1110 W
b100000000000000000 Q
b10 |
1,
#645
0,
#650
b10000000000000000000 B
b1000000000000000000 ^
b1000000000000000000 `
b1000000000000000000 l
b1000000000000000000 :
b1000000000000000000 <
b1000000000000000000 K
b1000000000000000000 [
b1000000000000000000 _
b1000000000000000000 D
b11111111111111111111111111111111100000000000010000000000000000000 A
b10000000000000000000 O
19
b1000000000000000000 Q
b1101 W
b0 e
b0 |
1,
#655
0,
#660
b100000000000000000000 B
b10000000000000000000 ^
b10000000000000000000 `
b10000000000000000000 l
b10000000000000000000 :
b10000000000000000000 <
b10000000000000000000 K
b10000000000000000000 [
b10000000000000000000 _
b10000000000000000000 D
b11111111111111111111111111111111100000000000100000000000000000000 A
b100000000000000000000 O
09
b1 d
b1 h
b1100 W
b10000000000000000000 Q
b10 |
b10 e
1,
#665
0,
#670
b1000000000000000000000 B
b100000000000000000000 ^
b100000000000000000000 `
b100000000000000000000 l
b100000000000000000000 :
b100000000000000000000 <
b100000000000000000000 K
b100000000000000000000 [
b100000000000000000000 _
b100000000000000000000 D
b11111111111111111111111111111111100000000001000000000000000000000 A
b1000000000000000000000 O
19
b0 d
b0 h
b100000000000000000000 Q
b1011 W
b0 e
b1 |
1,
#675
0,
#680
b10000000000000000000000 B
b1000000000000000000000 ^
b1000000000000000000000 `
b1000000000000000000000 l
b1000000000000000000000 :
b1000000000000000000000 <
b1000000000000000000000 K
b1000000000000000000000 [
b1000000000000000000000 _
b1000000000000000000000 D
b11111111111111111111111111111111100000000010000000000000000000000 A
b10000000000000000000000 O
09
b1 d
b1 h
b1010 W
b1000000000000000000000 Q
b0 |
b10 e
1,
#685
0,
#690
b100000000000000000000000 B
b10000000000000000000000 ^
b10000000000000000000000 `
b10000000000000000000000 l
b10000000000000000000000 :
b10000000000000000000000 <
b10000000000000000000000 K
b10000000000000000000000 [
b10000000000000000000000 _
b10000000000000000000000 D
b11111111111111111111111111111111100000000100000000000000000000000 A
b100000000000000000000000 O
b0 d
b0 h
b10000000000000000000000 Q
b1001 W
b1 e
b10 |
1,
#695
0,
#700
b1000000000000000000000000 B
b100000000000000000000000 ^
b100000000000000000000000 `
b100000000000000000000000 l
b100000000000000000000000 :
b100000000000000000000000 <
b100000000000000000000000 K
b100000000000000000000000 [
b100000000000000000000000 _
b100000000000000000000000 D
b11111111111111111111111111111111100000001000000000000000000000000 A
b1000000000000000000000000 O
b1 d
b1 h
b1000 W
b100000000000000000000000 Q
b1 |
b10 e
1,
#705
0,
#710
b10000000000000000000000000 B
b1000000000000000000000000 ^
b1000000000000000000000000 `
b1000000000000000000000000 l
b1000000000000000000000000 :
b1000000000000000000000000 <
b1000000000000000000000000 K
b1000000000000000000000000 [
b1000000000000000000000000 _
b1000000000000000000000000 D
b11111111111111111111111111111111100000010000000000000000000000000 A
b10000000000000000000000000 O
b0 d
b0 h
b1000000000000000000000000 Q
b111 W
b1 e
b0 |
1,
#715
0,
#720
b100000000000000000000000000 B
b10000000000000000000000000 ^
b10000000000000000000000000 `
b10000000000000000000000000 l
b10000000000000000000000000 :
b10000000000000000000000000 <
b10000000000000000000000000 K
b10000000000000000000000000 [
b10000000000000000000000000 _
b10000000000000000000000000 D
b11111111111111111111111111111111100000100000000000000000000000000 A
b100000000000000000000000000 O
b110 W
b10000000000000000000000000 Q
b1 |
1,
#725
0,
#730
b1000000000000000000000000000 B
b100000000000000000000000000 ^
b100000000000000000000000000 `
b100000000000000000000000000 l
b100000000000000000000000000 :
b100000000000000000000000000 <
b100000000000000000000000000 K
b100000000000000000000000000 [
b100000000000000000000000000 _
b100000000000000000000000000 D
b11111111111111111111111111111111100001000000000000000000000000000 A
b1000000000000000000000000000 O
b100000000000000000000000000 Q
b101 W
1,
#735
0,
#740
b10000000000000000000000000000 B
b1000000000000000000000000000 ^
b1000000000000000000000000000 `
b1000000000000000000000000000 l
b1000000000000000000000000000 :
b1000000000000000000000000000 <
b1000000000000000000000000000 K
b1000000000000000000000000000 [
b1000000000000000000000000000 _
b1000000000000000000000000000 D
b11111111111111111111111111111111100010000000000000000000000000000 A
b10000000000000000000000000000 O
19
b100 W
b1000000000000000000000000000 Q
b0 |
b0 e
1,
#745
0,
#750
b100000000000000000000000000000 B
b10000000000000000000000000000 ^
b10000000000000000000000000000 `
b10000000000000000000000000000 l
b10000000000000000000000000000 :
b10000000000000000000000000000 <
b10000000000000000000000000000 K
b10000000000000000000000000000 [
b10000000000000000000000000000 _
b10000000000000000000000000000 D
b11111111111111111111111111111111100100000000000000000000000000000 A
b100000000000000000000000000000 O
09
b10000000000000000000000000000 Q
b11 W
b1 e
1,
#755
0,
#760
b1000000000000000000000000000000 B
b100000000000000000000000000000 ^
b100000000000000000000000000000 `
b100000000000000000000000000000 l
b100000000000000000000000000000 :
b100000000000000000000000000000 <
b100000000000000000000000000000 K
b100000000000000000000000000000 [
b100000000000000000000000000000 _
b100000000000000000000000000000 D
b11111111111111111111111111111111101000000000000000000000000000000 A
b1000000000000000000000000000000 O
19
b10 W
b100000000000000000000000000000 Q
b0 e
1,
#765
0,
#770
b10000000000000000000000000000000 B
b1000000000000000000000000000000 ^
b1000000000000000000000000000000 `
b1000000000000000000000000000000 l
b1000000000000000000000000000000 :
b1000000000000000000000000000000 <
b1000000000000000000000000000000 K
b1000000000000000000000000000000 [
b1000000000000000000000000000000 _
b1000000000000000000000000000000 D
b11111111111111111111111111111111110000000000000000000000000000000 A
b10000000000000000000000000000000 O
b1000000000000000000000000000000 Q
b1 W
b10 |
1,
#775
0,
#780
b1 B
b10000000000000000000000000000000 ^
b10000000000000000000000000000000 `
b10000000000000000000000000000000 l
b10000000000000000000000000000000 :
b10000000000000000000000000000000 <
b10000000000000000000000000000000 K
b10000000000000000000000000000000 [
b10000000000000000000000000000000 _
b10000000000000000000000000000000 D
b0 A
b100000000000000000000000000000000 O
09
b1 d
b1 h
b0 W
b10000000000000000000000000000000 Q
b1 |
b10 e
1,
#785
0,
#790
b10 B
b1 ^
b1 `
b1 l
b1 :
b1 <
b1 K
b1 [
b1 _
b1 D
1E
1$"
1#"
b11111111111111111111111111111111100000000000000000000000000000010 A
b10 O
1g
0~
b0 d
b0 h
1c
1s
b1 Q
18
12
0V
0H
0N
0P
b11111 W
b1 e
b10 |
1,
#795
0,
#800
0E
b0 B
b0 ^
b0 `
b0 l
b0 :
b0 <
b0 K
b0 [
b0 _
b0 D
b1 @
1G
0$"
0#"
b11111111111111111111111111111111100000000000000000000000000000000 A
b0 O
b11111111111111111111111111111111 5
b11111111111111111111111111111111 >
b11111111111111111111111111111111 M
b11111111111111111111111111111111 Z
01
0s
b0 {
b0 !"
1z
1~
19
b11111111111111111111111111111111 d
b11111111111111111111111111111111 h
0c
08
02
1V
1H
1N
1P
1J
b0 Q
b100 &"
b100 ("
b11111111111111111111111111111111111111111111111111111111111111111 6
b11111111111111111111111111111111111111111111111111111111111111111 X
b11111111111111111111111111111111111111111111111111111111111111111 u
b11111111111111111111111111111111111111111111111111111111111111111 v
b11111111111111111111111111111111111111111111111111111111111111111 t
b11111111111111111111111111111111111111111111111111111111111111111 y
b11111111111111111111111111111111111111111111111111111111111111111 %"
b11 '"
b11 )"
b1 |
0}
1f
1,
#805
0,
#810
11
b11111111111111111111111111111111 {
b11111111111111111111111111111111 !"
0z
b11110 W
1}
b10 |
1,
#815
0,
#820
b11101 W
b1 |
b10 e
1,
#825
0,
#830
b11100 W
1,
#835
0,
#840
b11011 W
b0 e
1,
#845
0,
#850
b11010 W
b0 |
1,
#855
0,
#860
b11001 W
b10 e
1,
#865
0,
#870
b11000 W
b1 e
b10 |
1,
#875
0,
#880
b10111 W
b0 e
1,
#885
0,
#890
b10110 W
b0 |
1,
#895
0,
#900
b10101 W
b10 |
b1 e
1,
#905
0,
#910
b10100 W
b10 e
b0 |
1,
#915
0,
#920
b10011 W
b1 e
1,
#925
0,
#930
b10010 W
b10 e
b1 |
1,
#935
0,
#940
b10001 W
b10 |
b0 e
1,
#945
0,
#950
b10000 W
b1 |
1,
#955
0,
#960
b1111 W
b10 |
b10 e
1,
#965
0,
#970
b1110 W
1,
#975
0,
#980
b1101 W
b0 |
b0 e
1,
#985
0,
#990
b1100 W
b10 e
b10 |
1,
#995
0,
#1000
b1011 W
b0 e
1,
#1005
0,
#1010
b1010 W
b1 e
1,
#1015
0,
#1020
b1001 W
b1 |
1,
#1025
0,
#1030
b1000 W
b0 e
b0 |
1,
#1035
0,
#1040
b111 W
b10 |
b10 e
1,
#1045
0,
#1050
b110 W
1,
#1055
0,
#1060
b101 W
b1 |
b0 e
1,
#1065
0,
#1070
b100 W
1,
#1075
0,
#1080
b11 W
b0 |
b1 e
1,
#1085
0,
#1090
b10 W
b0 e
b1 |
1,
#1095
0,
#1100
b1 W
b10 |
b10 e
1,
#1105
0,
#1110
b0 W
b0 |
1,
#1115
0,
#1120
1a
1w
1$"
1#"
1E
1k
1j
0g
1s
0~
1\
18
12
0V
0H
0N
0P
b11111 W
b0 e
1,
#1125
0,
